{
  "EDITOR_STATE": {
    "allProjectFiles": {
      "31d38839-6ffd-4784-98a1-784b9fb35c21": {
        "id": "31d38839-6ffd-4784-98a1-784b9fb35c21",
        "parent": null,
        "name": "asas-indu.js",
        "type": "JS_LAMBDA",
        "isDirectory": false,
        "children": [],
        "isRemovable": true,
        "filePath": "asas-indu.js",
        "cursor": {
          "lineNumber": 3,
          "column": 31
        },
        "config": {
          "runtime": "nodejs14.x",
          "handler": "handler",
          "timeout": 60,
          "memory": 128,
          "layers": [],
          "name": "asasIndu"
        },
        "triggers": [],
        "lastUpdated": 1626092169929
      }
    },
    "openFiles": [
      "31d38839-6ffd-4784-98a1-784b9fb35c21"
    ],
    "currentFileId": "31d38839-6ffd-4784-98a1-784b9fb35c21",
    "resources": {},
    "customTemplate": {
      "syntax": "JSON",
      "overrideDefault": false,
      "dialect": null,
      "definitions": null
    },
    "envVariables": [
      {
        "lambdaId": "all",
        "varKey": "SIGMA_AWS_ACC_ID",
        "varValue": null,
        "shouldPersist": false,
        "displayOnly": false,
        "editable": false
      }
    ],
    "packageJSON": {
      "dependencies": {}
    }
  },
  "PROJECT_META": {
    "sigmaVersion": "1.9.0",
    "projectName": "asas-indu",
    "projectDescription": "",
    "projectVersion": "1.0.0",
    "projectRegion": "us-east-1",
    "platform": "AWS",
    "language": "nodejs",
    "platformRegions": {},
    "lastSave": 1626092176188
  },
  "VCS_STATE": {
    "provider": "BitBucket",
    "repo": {
      "name": "asas-indu",
      "url": "https://bitbucket.org/Indunil1992/asas-indu"
    }
  }
}